<?xml version="1.0" encoding="utf-8"?>
<!-- Generator: Adobe Illustrator 20.0.0, SVG Export Plug-In . SVG Version: 6.00 Build 0)  -->
<svg version="1.1" id="Layer_1" xmlns="http://www.w3.org/2000/svg" xmlns:xlink="http://www.w3.org/1999/xlink" x="0px" y="0px"
	 viewBox="0 0 348 416" style="enable-background:new 0 0 348 416;" xml:space="preserve">
<style type="text/css">
	.st0{fill:#FEDEA3;}
	.st1{fill:#302F41;}
	.st2{fill:#3D3C54;}
	.st3{fill:none;stroke:#33384C;}
	.st4{fill:#EEC68E;}
	.st5{fill:#F3CF9B;}
	.st6{fill:#7BF5F6;}
	.st7{fill:#FFFFFF;filter:url(#Adobe_OpacityMaskFilter);}
	.st8{mask:url(#path-12-inside-1);}
	.st9{fill:none;stroke:#000000;}
</style>
<g id="Group_5">
	<g id="Group_4">
		<path id="Vector_17" class="st0" d="M250.4,100c8-1.8,8.2-10.1,7.3-14.1c3.5,0.3,12.2,1.2,19,2.3c-1.1,9.4,2.3,9.7,4.1,8.6
			l-13.6,19C262.8,112.1,253.3,103.7,250.4,100z"/>
		<circle id="Ellipse_10" class="st1" cx="271.3" cy="61" r="24.9"/>
		<circle id="Ellipse_11" class="st0" cx="268.6" cy="72.8" r="18.6"/>
		<path id="Union" class="st1" d="M294.3,26.1c1.2-2,1.9-4.3,1.9-6.8c0-7.3-5.9-13.2-13.2-13.2c-7.3,0-13.2,5.9-13.2,13.2
			c0,0.2,0,0.3,0,0.5c-10.5,3-18.1,12.6-18.1,24c0,13.8,11.2,24.9,24.9,24.9c13.8,0,24.9-11.2,24.9-24.9
			C301.7,36.9,298.9,30.7,294.3,26.1z"/>
		<path id="Vector_19" class="st2" d="M297.5,188l-5.4-24.9l-46.7-3.2l-7.7,9.1l-5.9,10.9c-2.6-0.5-11.3-3.6-25.9-12.7
			c-18.1-11.3-33.1-9.1-34.9,0c-1.8,9.1-3.6,13.2,31.7,36.3c35.4,23.1,89.3,16.3,102.5,16.3c10.5,0,6.8,6.7,3.6,10
			c3.2,13.3,10.5,38.5,14.5,32.7c5-7.3,22.7-34.5,24-54.4C348.5,192,314.6,188,297.5,188z"/>
		<path id="Vector_20" class="st3" d="M196.5,168.5c3.9,1.8,13.1,5.8,18.1,7.3c6.3,1.8,22.2,10,29.9,18.1"/>
		<path id="Vector_22" class="st4" d="M287.6,205.3c-9.1-0.4-33.7-7.7-44.9-11.3c-9.7,4.4-24.8,13.6-7.7,15.4
			c21.3,2.3,77.6,24.5,76.6,14.5C310.8,213.9,299,205.7,287.6,205.3z"/>
		<path id="Vector_18" class="st5" d="M308.9,125c0.6,12.5,1.5,38.2,0,40.4c-1.8,2.7-10.9,20.9-17.7,25.4c-5.4,3.6-7.1,11.5-7.3,15
			c-2.4,1-6.4,2.1-10,1.9c0.7,2.7,0.4,4.9-3.6,4.9c-5.8,0-12.1-8.5-14.5-12.7c-1.7-2.7-6.1-9-10.4-12.2
			c-5.4-4.1-13.6-11.3-14.5-23.6c-0.9-12.2-1.4-20.4,0-29c1.1-6.9,7.7-2.9,10.9,0c-0.2,10.1,0.9,31.5,6.3,35.8
			c5.3,4.2,16.6,17,21.6,24.8c3.9-3.6,9.8-7,12-10.7c3.6-6.3,9.5-17.7,13.6-20.9v-32.7l13.2-6.8L308.9,125z"/>
		<path id="Vector_16" class="st1" d="M266.8,114.1L250,98.7c-2,1.8-7.3,5.8-13.2,7.3c-7.3,1.8-10.9,8.2-10.9,14.5
			c0.5,6.3-1.8,14.5-2.3,19c1.5,0.7,5.7-1.2,7.7-2.3c2.4-0.8,8-1.8,10.9,0c-1.1,9.4,0.9,24.5,3.6,30.4c3.2-1.1,11.9-2.5,23.1,0
			c11.2,2.5,19.5,1.2,23.6-0.9l2.7-2.7v-32.7l15.4-5.9c-0.5-0.5-1.7-4-3.2-14.5c-1.5-10.5-10-14.1-14.1-14.5L279,95.5L266.8,114.1z"
			/>
	</g>
	<g id="Group_3">
		<path id="Vector_7" class="st6" d="M61.8,363.1c-4.1,7.3-9.8,21.8,0,21.8C71.6,384.9,65.9,370.3,61.8,363.1z"/>
		<path id="Union_2" class="st6" d="M271.7,350.8h-98.8H62.2c-32.1,0-58.1-26-58.1-58.1s26-58.1,58.1-58.1c15.3,0,29.3,6,39.7,15.7
			c10.3-29.2,38.2-50.1,71-50.1c23,0,43.6,10.3,57.4,26.6c11.5-8.7,25.9-13.9,41.5-13.9c38.1,0,68.9,30.9,68.9,68.9
			C340.7,320,309.8,350.8,271.7,350.8C271.7,350.8,271.7,350.8,271.7,350.8z"/>
		<g id="Union_3">
			<defs>
				<filter id="Adobe_OpacityMaskFilter" filterUnits="userSpaceOnUse" x="3.4" y="192.2" width="338.1" height="152.2">
					<feColorMatrix  type="matrix" values="1 0 0 0 0  0 1 0 0 0  0 0 1 0 0  0 0 0 1 0"/>
				</filter>
			</defs>
			<mask maskUnits="userSpaceOnUse" x="3.4" y="192.2" width="338.1" height="152.2" id="path-12-inside-1">
				<path class="st7" d="M62.2,343.6c-32.1,0-58.1-26-58.1-58.1s26-58.1,58.1-58.1c15.3,0,29.3,6,39.7,15.7
					c10.3-29.2,38.2-50.1,71-50.1c23,0,43.6,10.3,57.4,26.6c11.5-8.7,25.9-13.9,41.5-13.9c38.1,0,68.9,30.9,68.9,68.9
					c0,38.1-30.9,68.9-68.9,68.9h-98.9H62.2z"/>
			</mask>
			<path class="st8" d="M62.2,343.6v-0.8V343.6z M101.9,243.2l-0.6,0.6l0.9,0.9l0.4-1.2L101.9,243.2z M230.3,219.6l-0.6,0.5l0.5,0.6
				l0.6-0.5L230.3,219.6z M172.9,343.6v0.8V343.6z M62.2,342.8C30.6,342.8,5,317.2,5,285.5H3.4c0,32.5,26.4,58.9,58.9,58.9V342.8z
				 M5,285.5c0-31.6,25.6-57.2,57.2-57.2v-1.6c-32.5,0-58.9,26.4-58.9,58.9H5z M62.2,228.3c15.1,0,28.9,5.9,39.1,15.5l1.1-1.2
				c-10.5-9.9-24.7-15.9-40.2-15.9V228.3z M102.7,243.4c10.2-28.9,37.8-49.6,70.2-49.6v-1.6c-33.1,0-61.3,21.2-71.8,50.7
				L102.7,243.4z M172.9,193.8c22.7,0,43.1,10.2,56.8,26.3l1.2-1.1c-14-16.4-34.8-26.9-58-26.9V193.8z M230.8,220.2
				c11.4-8.6,25.6-13.7,41-13.7v-1.6c-15.8,0-30.3,5.2-42,14L230.8,220.2z M271.8,206.5c37.6,0,68.1,30.5,68.1,68.1h1.6
				c0-38.5-31.2-69.8-69.8-69.8V206.5z M339.9,274.7c0,37.6-30.5,68.1-68.1,68.1v1.6c38.5,0,69.8-31.2,69.8-69.8H339.9z
				 M271.8,342.8h-98.9v1.6h98.9V342.8z M172.9,342.8H62.2v1.6h110.7V342.8z"/>
		</g>
		<path id="Vector_6" class="st9" d="M64.5,364c-4.1,7.3-9.8,21.8,0,21.8C74.3,385.8,68.6,371.3,64.5,364z"/>
		<path id="Vector_8" class="st6" d="M101.2,392.6c-4.1,7.3-9.8,21.8,0,21.8S105.3,399.8,101.2,392.6z"/>
		<path id="Vector_9" class="st9" d="M103.9,393.5c-4.1,7.3-9.8,21.8,0,21.8C113.7,415.2,108,400.7,103.9,393.5z"/>
		<path id="Vector_10" class="st6" d="M151.1,366.3c-4.1,7.3-9.8,21.8,0,21.8C160.9,388,155.2,373.5,151.1,366.3z"/>
		<path id="Vector_11" class="st9" d="M153.8,367.2c-4.1,7.3-9.8,21.8,0,21.8C163.6,388.9,157.9,374.4,153.8,367.2z"/>
		<path id="Vector_12" class="st6" d="M195.5,392.6c-4.1,7.3-9.8,21.8,0,21.8C205.3,414.3,199.6,399.8,195.5,392.6z"/>
		<path id="Vector_13" class="st9" d="M198.2,393.5c-4.1,7.3-9.8,21.8,0,21.8C208,415.2,202.3,400.7,198.2,393.5z"/>
		<path id="Vector_14" class="st6" d="M244.5,365.4c-4.1,7.3-9.8,21.8,0,21.8S248.6,372.6,244.5,365.4z"/>
		<path id="Vector_15" class="st9" d="M247.2,366.3c-4.1,7.3-9.8,21.8,0,21.8C257,388,251.3,373.5,247.2,366.3z"/>
	</g>
</g>
</svg>
