<?xml version="1.0" standalone="no"?>
<!DOCTYPE svg PUBLIC "-//W3C//DTD SVG 1.1//EN" "http://www.w3.org/Graphics/SVG/1.1/DTD/svg11.dtd" >
<svg xmlns="http://www.w3.org/2000/svg">
<metadata>Generated by IcoMoon</metadata>
<defs>
<font id="weatherapp" horiz-adv-x="1024">
<font-face units-per-em="1024" ascent="960" descent="-64" />
<missing-glyph horiz-adv-x="1024" />
<glyph unicode="&#x20;" horiz-adv-x="512" d="" />
<glyph unicode="&#xe900;" glyph-name="thermo" d="M512 0c70.692 0 128 57.308 128 128 0 47.378-25.741 88.744-64 110.876v592.966c0 35.434-28.407 64.158-64 64.158-35.346 0-64-28.705-64-64.158v-592.966c-38.259-22.132-64-63.498-64-110.876 0-70.692 57.308-128 128-128zM512 32c-53.019 0-96 42.981-96 96 0 41.965 26.927 77.641 64.445 90.694-0.293 1.751-0.445 3.55-0.445 5.386v319.842c0 17.495 14.327 32.079 32 32.079 17.796 0 32-14.362 32-32.079v-319.842c0-1.83-0.157-3.628-0.458-5.381 37.525-13.049 64.458-48.728 64.458-90.698 0-53.019-42.981-96-96-96zM512-64c-106.039 0-192 85.961-192 192 0 56.864 24.72 107.955 64 143.111v560.713c0 70.99 57.308 128.177 128 128.177 70.549 0 128-57.387 128-128.177v-560.713c39.28-35.156 64-86.247 64-143.111 0-106.039-85.961-192-192-192z" />
<glyph unicode="&#xe901;" glyph-name="wind" d="M42.667 576h682.667c93.867 0 170.667 76.8 170.667 170.667s-76.8 170.667-170.667 170.667-170.667-76.8-170.667-170.667c0-25.6 17.067-42.667 42.667-42.667s42.667 17.067 42.667 42.667c0 46.933 38.4 85.333 85.333 85.333s85.333-38.4 85.333-85.333-38.4-85.333-85.333-85.333h-682.667c-25.6 0-42.667-17.067-42.667-42.667v0c0-25.6 17.067-42.667 42.667-42.667zM469.333 405.333h-426.667c-21.333 0-42.667-17.067-42.667-42.667v0c0-21.333 17.067-42.667 42.667-42.667h426.667c46.933 0 85.333-38.4 85.333-85.333s-38.4-85.333-85.333-85.333-85.333 38.4-85.333 85.333c0 25.6-17.067 42.667-42.667 42.667s-42.667-17.067-42.667-42.667c0-93.867 76.8-170.667 170.667-170.667s170.667 76.8 170.667 170.667-76.8 170.667-170.667 170.667zM853.333 533.333h-810.667c-21.333 0-42.667-17.067-42.667-42.667v0c0-21.333 17.067-42.667 42.667-42.667h810.667c46.933 0 85.333-38.4 85.333-85.333s-38.4-85.333-85.333-85.333-85.333 38.4-85.333 85.333c0 25.6-17.067 42.667-42.667 42.667s-42.667-17.067-42.667-42.667c0-93.867 76.8-170.667 170.667-170.667s170.667 76.8 170.667 170.667-76.8 170.667-170.667 170.667z" />
<glyph unicode="&#xe902;" glyph-name="compass" d="M512 0c-247.424 0-448 200.576-448 448s200.576 448 448 448c247.424 0 448-200.576 448-448s-200.576-448-448-448zM512 800c0 0 128-281.28 128-352s-57.308-128-128-128c-70.692 0-128 57.28-128 128s128 352 128 352zM512 64c212.077 0 384 171.923 384 384s-171.923 384-384 384c-212.077 0-384-171.923-384-384s171.923-384 384-384zM512 384c35.346 0 64 28.654 64 64s-28.654 64-64 64c-35.346 0-64-28.654-64-64s28.654-64 64-64z" />
<glyph unicode="&#xe90c;" glyph-name="sun" horiz-adv-x="1067" d="M512 192c-140.8 0-256 115.2-256 256s115.2 256 256 256 256-115.2 256-256-115.2-256-256-256zM512 640c-106.667 0-192-85.333-192-192s85.333-192 192-192 192 85.333 192 192-85.333 192-192 192zM524.8 746.667c-17.067 0-34.133 12.8-34.133 34.133v145.067c0 17.067 12.8 34.133 34.133 34.133s29.867-17.067 29.867-34.133v-149.333c0-17.067-12.8-29.867-29.867-29.867zM524.8-64c-17.067 0-34.133 12.8-34.133 34.133v149.333c0 17.067 12.8 34.133 34.133 34.133s34.133-12.8 34.133-34.133v-149.333c-4.267-21.333-17.067-34.133-34.133-34.133zM183.467 426.667h-149.333c-17.067 0-34.133 12.8-34.133 34.133s17.067 29.867 34.133 29.867h149.333c17.067 0 29.867-17.067 29.867-34.133s-12.8-29.867-29.867-29.867zM1002.667 413.867h-149.333c-17.067 0-34.133 12.8-34.133 34.133s12.8 34.133 34.133 34.133h149.333c17.067 0 34.133-12.8 34.133-34.133s-17.067-34.133-34.133-34.133zM768 648.533c-8.533 0-17.067 4.267-21.333 8.533-12.8 12.8-12.8 34.133 0 46.933l106.667 106.667c12.8 12.8 34.133 12.8 46.933 0s12.8-34.133 0-46.933l-110.933-102.4c-4.267-8.533-12.8-12.8-21.333-12.8zM170.667 51.2c-8.533 0-17.067 4.267-21.333 8.533-12.8 12.8-12.8 34.133 0 46.933l106.667 106.667c12.8 12.8 34.133 12.8 46.933 0s12.8-34.133 0-46.933l-110.933-102.4c-4.267-8.533-12.8-12.8-21.333-12.8zM277.333 648.533c-8.533 0-17.067 4.267-21.333 12.8l-102.4 106.667c-12.8 12.8-12.8 34.133 0 46.933s34.133 12.8 46.933 0l98.133-110.933c12.8-12.8 12.8-34.133 0-42.667-4.267-8.533-12.8-12.8-21.333-12.8zM874.667 51.2c-8.533 0-17.067 4.267-21.333 8.533l-102.4 106.667c-12.8 12.8-12.8 34.133 0 46.933s34.133 12.8 46.933 0l98.133-106.667c12.8-12.8 12.8-34.133 0-46.933-4.267-4.267-12.8-8.533-21.333-8.533z" />
<glyph unicode="&#xe917;" glyph-name="zoom" horiz-adv-x="878" d="M365.714 265.143c-182.857 0-329.143 146.286-329.143 329.143s146.286 329.143 329.143 329.143 329.143-146.286 329.143-329.143-146.286-329.143-329.143-329.143zM365.714 850.286c-138.971 0-256-117.029-256-256s117.029-256 256-256 256 117.029 256 256-117.029 256-256 256zM746.057 16.457c-21.943 0-43.886 7.314-58.514 29.257l-153.6 204.8c-21.943 29.257-14.629 80.457 14.629 102.4s80.457 14.629 102.4-14.629l153.6-204.8c21.943-29.257 14.629-80.457-14.629-102.4-14.629-7.314-29.257-14.629-43.886-14.629z" />
</font></defs></svg>